[gd_scene load_steps=4 format=2]

[ext_resource path="res://assets/laser.png" type="Texture" id=1]
[ext_resource path="res://bullet/Bullet.gd" type="Script" id=2]

[sub_resource type="CapsuleShape2D" id=1]
radius = 1.61333
height = 25.706

[node name="Bullet" type="Area2D"]
script = ExtResource( 2 )
__meta__ = {
"_edit_group_": true
}
speed = 1000

[node name="Sprite" type="Sprite" parent="."]
scale = Vector2( 0.5, 0.5 )
texture = ExtResource( 1 )

[node name="CollisionShape2D" type="CollisionShape2D" parent="."]
rotation = 1.5708
shape = SubResource( 1 )

[node name="VisibilityNotifier2D" type="VisibilityNotifier2D" parent="."]
visible = false
[connection signal="area_entered" from="." to="." method="_on_Bullet_area_entered"]
[connection signal="body_entered" from="." to="." method="_on_Bullet_body_entered"]
[connection signal="screen_exited" from="VisibilityNotifier2D" to="." method="_on_VisibilityNotifier2D_screen_exited"]
