[gd_scene load_steps=11 format=2]

[ext_resource path="res://hud/HUD.gd" type="Script" id=1]
[ext_resource path="res://assets/player_small.png" type="Texture" id=2]
[ext_resource path="res://assets/kenvector_future_thin.ttf" type="DynamicFontData" id=3]
[ext_resource path="res://assets/play_button_h.png" type="Texture" id=4]
[ext_resource path="res://assets/play_button.png" type="Texture" id=5]
[ext_resource path="res://assets/glassPanel_200.png" type="Texture" id=6]
[ext_resource path="res://assets/shield_gold.png" type="Texture" id=7]
[ext_resource path="res://assets/barHorizontal_green_mid 200.png" type="Texture" id=8]

[sub_resource type="DynamicFont" id=1]
size = 64
font_data = ExtResource( 3 )

[sub_resource type="DynamicFont" id=2]
size = 64
font_data = ExtResource( 3 )

[node name="HUD" type="CanvasLayer"]
script = ExtResource( 1 )

[node name="MarginContainer" type="MarginContainer" parent="."]
anchor_right = 1.0
custom_constants/margin_right = 20
custom_constants/margin_top = 20
custom_constants/margin_left = 20
custom_constants/margin_bottom = 20
__meta__ = {
"_edit_use_anchors_": false
}

[node name="HBoxContainer" type="HBoxContainer" parent="MarginContainer"]
margin_left = 20.0
margin_top = 20.0
margin_right = 1004.0
margin_bottom = 92.0

[node name="ScoreLabel" type="Label" parent="MarginContainer/HBoxContainer"]
margin_right = 283.0
margin_bottom = 72.0
size_flags_horizontal = 3
custom_fonts/font = SubResource( 1 )
text = "0"

[node name="MultiplierLabel" type="Label" parent="MarginContainer/HBoxContainer"]
margin_left = 287.0
margin_right = 570.0
margin_bottom = 72.0
size_flags_horizontal = 3
custom_fonts/font = SubResource( 1 )
text = "1.0x"

[node name="HBoxContainer" type="HBoxContainer" parent="MarginContainer/HBoxContainer"]
margin_left = 574.0
margin_right = 857.0
margin_bottom = 72.0
size_flags_horizontal = 3
size_flags_vertical = 3

[node name="TextureRect" type="TextureRect" parent="MarginContainer/HBoxContainer/HBoxContainer"]
margin_right = 30.0
margin_bottom = 72.0
texture = ExtResource( 7 )
stretch_mode = 6

[node name="CenterContainer" type="CenterContainer" parent="MarginContainer/HBoxContainer/HBoxContainer"]
margin_left = 34.0
margin_right = 234.0
margin_bottom = 72.0

[node name="ShieldBar" type="TextureProgress" parent="MarginContainer/HBoxContainer/HBoxContainer/CenterContainer"]
margin_top = 23.0
margin_right = 200.0
margin_bottom = 49.0
value = 100.0
texture_over = ExtResource( 6 )
texture_progress = ExtResource( 8 )
__meta__ = {
"_edit_use_anchors_": false
}

[node name="LivesCounter" type="HBoxContainer" parent="MarginContainer/HBoxContainer"]
margin_left = 861.0
margin_right = 983.0
margin_bottom = 72.0

[node name="L1" type="TextureRect" parent="MarginContainer/HBoxContainer/LivesCounter"]
margin_right = 38.0
margin_bottom = 72.0
texture = ExtResource( 2 )
stretch_mode = 6

[node name="L2" type="TextureRect" parent="MarginContainer/HBoxContainer/LivesCounter"]
margin_left = 42.0
margin_right = 80.0
margin_bottom = 72.0
texture = ExtResource( 2 )
stretch_mode = 6

[node name="L3" type="TextureRect" parent="MarginContainer/HBoxContainer/LivesCounter"]
margin_left = 84.0
margin_right = 122.0
margin_bottom = 72.0
texture = ExtResource( 2 )
stretch_mode = 6

[node name="StartButton" type="TextureButton" parent="."]
anchor_left = 0.5
anchor_top = 0.5
anchor_right = 0.5
anchor_bottom = 0.5
margin_left = -124.5
margin_top = -32.5
margin_right = 124.5
margin_bottom = 32.5
texture_normal = ExtResource( 5 )
texture_hover = ExtResource( 4 )
__meta__ = {
"_edit_use_anchors_": false
}

[node name="MessageLabel" type="Label" parent="."]
anchor_right = 1.0
anchor_bottom = 1.0
custom_fonts/font = SubResource( 2 )
align = 1
valign = 1
__meta__ = {
"_edit_use_anchors_": false
}

[node name="MessageTimer" type="Timer" parent="."]
wait_time = 2.0
one_shot = true
[connection signal="pressed" from="StartButton" to="." method="_on_StartButton_pressed"]
[connection signal="timeout" from="MessageTimer" to="." method="_on_MessageTimer_timeout"]
